{
  "meta": {
    "success": true,
    "message": "ok"
  },
  "data": {
    "pageSize": 8,
    "pageNumber": 2,
    "totalCount": 12,
    "totalPage": 2,
    "list": [
      {
        "id": 34,
        "type": 1,
        "osId": null,
        "channelName": "channel-a",
        "cost": "34546.00",
        "startTime": "2017-07-03",
        "endTime": "2017-07-11",
        "startHour": "00:00",
        "endHour": "23:00",
        "delTag": null,
        "accountId": null,
        "storeIds": null,
        "createdTime": "2017-08-30 21:46:12",
        "lastChanged": "2017-08-30 21:46:12"
      },
      {
        "id": 29,
        "type": 2,
        "osId": null,
        "channelName": "channel-b",
        "cost": "102345.00",
        "startTime": "2017-10-01",
        "endTime": "2017-10-07",
        "startHour": "00:00",
        "endHour": "23:00",
        "delTag": null,
        "accountId": null,
        "storeIds": null,
        "createdTime": "2017-10-01 00:00:00",
        "lastChanged": "2017-10-08 14:51:48"
      },
      {
        "id": 31,
        "type": 1,
        "osId": null,
        "channelName": "channel-c",
        "cost": "45335.00",
        "startTime": "2017-11-11",
        "endTime": "2017-11-11",
        "startHour": "00:00",
        "endHour": "23:00",
        "delTag": null,
        "accountId": null,
        "storeIds": null,
        "createdTime": "2017-11-11 00:00:00",
        "lastChanged": "2017-11-12 22:11:14"
      },
      {
        "id": 30,
        "type": 1,
        "osId": null,
        "channelName": "channel-d",
        "cost": "2542.00",
        "startTime": "2017-12-24",
        "endTime": "2017-12-26",
        "startHour": "00:00",
        "endHour": "23:00",
        "delTag": null,
        "accountId": null,
        "storeIds": null,
        "createdTime": "2017-12-23 18:05:04",
        "lastChanged": "2017-12-27 19:00:00"
      },
      {
        "id": 35,
        "type": 2,
        "osId": null,
        "channelName": "channel-e",
        "cost": "2433.00",
        "startTime": "2017-12-31",
        "endTime": "2018-01-01",
        "startHour": "00:00",
        "endHour": "23:00",
        "delTag": null,
        "accountId": null,
        "storeIds": null,
        "createdTime": "2017-12-31 18:05:04",
        "lastChanged": "2018-01-02 09:30:12"
      },
      {
        "id": 32,
        "type": 2,
        "osId": null,
        "channelName": "channel-f",
        "cost": "863723.00",
        "startTime": "2018-02-15",
        "endTime": "2018-02-20",
        "startHour": "00:00",
        "endHour": "23:00",
        "delTag": null,
        "accountId": null,
        "storeIds": null,
        "createdTime": "2018-02-13 12:00:44",
        "lastChanged": "2018-02-21 21:22:13"
      },
      {
        "id": 33,
        "type": 2,
        "osId": null,
        "channelName": "channel-g",
        "cost": "5424.00",
        "startTime": "2018-03-02",
        "endTime": "2018-03-02",
        "startHour": "00:00",
        "endHour": "23:00",
        "delTag": null,
        "accountId": null,
        "storeIds": null,
        "createdTime": "2018-03-02 00:00:00",
        "lastChanged": "2018-03-03 08:15:04"
      },
      {
        "id": 36,
        "type": 1,
        "osId": null,
        "channelName": "channel-h",
        "cost": "1945.00",
        "startTime": "2018-04-05",
        "endTime": "2018-04-08",
        "startHour": "00:00",
        "endHour": "23:00",
        "delTag": null,
        "accountId": null,
        "storeIds": null,
        "createdTime": "2018-04-05 00:00:00",
        "lastChanged": "2018-04-09 09:30:00"
      }
    ]
  }
}