{
  "meta": {
    "success": true,
    "message": "ok"
  },
  "data": {
    "pageSize": 8,
    "pageNumber": 2,
    "totalCount": 12,
    "totalPage": 2,
    "list": [
      {
        "id": 29,
        "type": 1,
        "osId": null,
        "name": "channel-i",
        "code": "channel-i",
        "createdTime": "2018-05-01 00:00:00"
      ,"url":"http://www.saas.com/channel-i"
      },
      {
        "id": 31,
        "type": 1,
        "osId": null,
        "name": "channel-j",
        "code": "channel-j",
        "createdTime": "2018-05-11 00:00:00"
      ,"url":"http://www.saas.com/channel-j"
      },
      {
        "id": 30,
        "type": 2,
        "osId": null,
        "name": "channel-k",
        "code": "channel-k",
        "createdTime": "2018-05-26 08:00:00"
      ,"url":"http://www.saas.com/channel-k"
      },
      {
        "id": 35,
        "type": 2,
        "osId": null,
        "name": "channel-l",
        "code": "channel-l",
        "createdTime": "2018-05-27 00:00:00"
      ,"url":"http://www.saas.com/channel-l"
      }
    ]
  }
}