{
  "meta": {
    "success": true,
    "message": "ok"
  },
  "data": {
    "pageSize": 8,
    "pageNumber": 2,
    "totalCount": 12,
    "totalPage": 2,
    "list": [
      {
        "id": 29,
        "type": 1,
        "osId": null,
        "name": "activeTheme-i",
        "cost": "23123.00",
        "startTime": "2018-05-01",
        "endTime": "2018-05-03",
        "startHour": "00:00",
        "endHour": "23:00",
        "delTag": null,
        "accountId": null,
        "storeIds": null,
        "createdTime": "2018-05-01 00:00:00",
        "lastChanged": "2018-05-04 14:51:48"
      },
      {
        "id": 31,
        "type": 1,
        "osId": null,
        "name": "activeTheme-j",
        "cost": "335.00",
        "startTime": "2018-05-11",
        "endTime": "2018-05-11",
        "startHour": "00:00",
        "endHour": "23:00",
        "delTag": null,
        "accountId": null,
        "storeIds": null,
        "createdTime": "2018-05-11 00:00:00",
        "lastChanged": "2018-05-11 22:11:18"
      },
      {
        "id": 30,
        "type": 2,
        "osId": null,
        "name": "activeTheme-k",
        "cost": "666.00",
        "startTime": "2018-05-26",
        "endTime": "2018-05-26",
        "startHour": "00:00",
        "endHour": "23:00",
        "delTag": null,
        "accountId": null,
        "storeIds": null,
        "createdTime": "2018-05-26 08:00:00",
        "lastChanged": "2018-05-26 18:00:00"
      },
      {
        "id": 35,
        "type": 2,
        "osId": null,
        "name": "activeTheme-l",
        "cost": "888.00",
        "startTime": "2018-05-27",
        "endTime": "2018-05-27",
        "startHour": "00:00",
        "endHour": "23:00",
        "delTag": null,
        "accountId": null,
        "storeIds": null,
        "createdTime": "2018-05-27 00:00:00",
        "lastChanged": "2018-05-27 08:30:18"
      }
    ]
  }
}